Header,Propiedad,Descripción
Se refiere a las organizaciones o personas jurídicas involucradas de alguna forma en los procesos de contratación.,Nombre,El nombre legalmente registrado de la organización.
Se refiere a las organizaciones o personas jurídicas involucradas de alguna forma en los procesos de contratación.,id,El identificador de la organización en el esquema seleccionado. El esquema de identificación de la organización utiliza los códigos de [org-id.guide] (http://org-id.guide)
Se refiere a las organizaciones o personas jurídicas involucradas de alguna forma en los procesos de contratación.,Fuente,Fuente(s) de dónde se extraen los datos para crear/actualizar el nodo Organización.