Header,Propiedad,Descripción
Proceso de contratación. Hace referencia a las actividades llevadas a cabo para celebrar un contrato de compras públicas,Nombre,Nombre(s) y apellido(s) de la persona.
Proceso de contratación. Hace referencia a las actividades llevadas a cabo para celebrar un contrato de compras públicas,ocid,Identificador único global de la licitación. Para más información puede visitar https://standard.open-contracting.org/1.1/es/schema/identifiers/
Proceso de contratación. Hace referencia a las actividades llevadas a cabo para celebrar un contrato de compras públicas,Fuente,Fuente(s) de dónde se extraen los datos para crear/actualizar el nodo Licitación.